#TYPE System.IO.DirectoryInfo
"PSPath","PSParentPath","PSChildName","PSProvider","PSIsContainer","Mode","BaseName","Target","LinkType","Name","FullName","Parent","Exists","Root","Extension","CreationTime","CreationTimeUtc","LastAccessTime","LastAccessTimeUtc","LastWriteTime","LastWriteTimeUtc","Attributes"
"Microsoft.PowerShell.Core\FileSystem::\\192.168.13.135\cts bk\bk121219","Microsoft.PowerShell.Core\FileSystem::\\192.168.13.135\cts bk","bk121219","Microsoft.PowerShell.Core\FileSystem","True","d-----","bk121219",,,"bk121219","\\192.168.13.135\cts bk\bk121219","cts bk","True","\\192.168.13.135\cts bk","","12/12/2019 5:22:08 PM","12/12/2019 3:22:08 PM","12/12/2019 6:06:09 PM","12/12/2019 4:06:09 PM","12/12/2019 6:06:09 PM","12/12/2019 4:06:09 PM","Directory"
"Microsoft.PowerShell.Core\FileSystem::\\192.168.13.135\cts bk\Accounting.bak","Microsoft.PowerShell.Core\FileSystem::\\192.168.13.135\cts bk","Accounting.bak","Microsoft.PowerShell.Core\FileSystem","False","-a----","Accounting",,,"Accounting.bak","\\192.168.13.135\cts bk\Accounting.bak",,"True",,".bak","18/09/2018 8:28:54 AM","18/09/2018 5:28:54 AM","18/09/2018 8:28:54 AM","18/09/2018 5:28:54 AM","25/11/2021 12:10:17 AM","24/11/2021 10:10:17 PM","Archive"
"Microsoft.PowerShell.Core\FileSystem::\\192.168.13.135\cts bk\Accounting_Log.Bak","Microsoft.PowerShell.Core\FileSystem::\\192.168.13.135\cts bk","Accounting_Log.Bak","Microsoft.PowerShell.Core\FileSystem","False","-a----","Accounting_Log",,,"Accounting_Log.Bak","\\192.168.13.135\cts bk\Accounting_Log.Bak",,"True",,".Bak","06/09/2018 3:36:29 PM","06/09/2018 12:36:29 PM","18/09/2018 8:26:36 AM","18/09/2018 5:26:36 AM","25/11/2021 6:00:34 PM","25/11/2021 4:00:34 PM","Archive"
"Microsoft.PowerShell.Core\FileSystem::\\192.168.13.135\cts bk\Attendance.bak","Microsoft.PowerShell.Core\FileSystem::\\192.168.13.135\cts bk","Attendance.bak","Microsoft.PowerShell.Core\FileSystem","False","-a----","Attendance",,,"Attendance.bak","\\192.168.13.135\cts bk\Attendance.bak",,"True",,".bak","18/09/2018 8:42:39 AM","18/09/2018 5:42:39 AM","18/09/2018 8:42:39 AM","18/09/2018 5:42:39 AM","25/11/2021 12:10:23 AM","24/11/2021 10:10:23 PM","Archive"
"Microsoft.PowerShell.Core\FileSystem::\\192.168.13.135\cts bk\Attendance_Log.Bak","Microsoft.PowerShell.Core\FileSystem::\\192.168.13.135\cts bk","Attendance_Log.Bak","Microsoft.PowerShell.Core\FileSystem","False","-a----","Attendance_Log",,,"Attendance_Log.Bak","\\192.168.13.135\cts bk\Attendance_Log.Bak",,"True",,".Bak","18/09/2018 8:42:47 AM","18/09/2018 5:42:47 AM","18/09/2018 8:42:47 AM","18/09/2018 5:42:47 AM","25/11/2021 6:00:35 PM","25/11/2021 4:00:35 PM","Archive"
"Microsoft.PowerShell.Core\FileSystem::\\192.168.13.135\cts bk\Common_DB.bak","Microsoft.PowerShell.Core\FileSystem::\\192.168.13.135\cts bk","Common_DB.bak","Microsoft.PowerShell.Core\FileSystem","False","-a----","Common_DB",,,"Common_DB.bak","\\192.168.13.135\cts bk\Common_DB.bak",,"True",,".bak","18/09/2018 8:29:58 AM","18/09/2018 5:29:58 AM","18/09/2018 8:29:58 AM","18/09/2018 5:29:58 AM","25/11/2021 12:10:28 AM","24/11/2021 10:10:28 PM","Archive"
"Microsoft.PowerShell.Core\FileSystem::\\192.168.13.135\cts bk\Common_DB_Log.Bak","Microsoft.PowerShell.Core\FileSystem::\\192.168.13.135\cts bk","Common_DB_Log.Bak","Microsoft.PowerShell.Core\FileSystem","False","-a----","Common_DB_Log",,,"Common_DB_Log.Bak","\\192.168.13.135\cts bk\Common_DB_Log.Bak",,"True",,".Bak","18/09/2018 8:42:47 AM","18/09/2018 5:42:47 AM","18/09/2018 8:42:47 AM","18/09/2018 5:42:47 AM","25/11/2021 6:00:35 PM","25/11/2021 4:00:35 PM","Archive"
"Microsoft.PowerShell.Core\FileSystem::\\192.168.13.135\cts bk\ComUserLogDB.bak","Microsoft.PowerShell.Core\FileSystem::\\192.168.13.135\cts bk","ComUserLogDB.bak","Microsoft.PowerShell.Core\FileSystem","False","-a----","ComUserLogDB",,,"ComUserLogDB.bak","\\192.168.13.135\cts bk\ComUserLogDB.bak",,"True",,".bak","18/09/2018 8:30:00 AM","18/09/2018 5:30:00 AM","18/09/2018 8:30:00 AM","18/09/2018 5:30:00 AM","25/11/2021 12:10:30 AM","24/11/2021 10:10:30 PM","Archive"
"Microsoft.PowerShell.Core\FileSystem::\\192.168.13.135\cts bk\ComUserLogDB_Log.Bak","Microsoft.PowerShell.Core\FileSystem::\\192.168.13.135\cts bk","ComUserLogDB_Log.Bak","Microsoft.PowerShell.Core\FileSystem","False","-a----","ComUserLogDB_Log",,,"ComUserLogDB_Log.Bak","\\192.168.13.135\cts bk\ComUserLogDB_Log.Bak",,"True",,".Bak","18/09/2018 8:42:50 AM","18/09/2018 5:42:50 AM","18/09/2018 8:42:50 AM","18/09/2018 5:42:50 AM","25/11/2021 6:00:35 PM","25/11/2021 4:00:35 PM","Archive"
"Microsoft.PowerShell.Core\FileSystem::\\192.168.13.135\cts bk\dbexport.bak","Microsoft.PowerShell.Core\FileSystem::\\192.168.13.135\cts bk","dbexport.bak","Microsoft.PowerShell.Core\FileSystem","False","-a----","dbexport",,,"dbexport.bak","\\192.168.13.135\cts bk\dbexport.bak",,"True",,".bak","18/09/2018 8:30:02 AM","18/09/2018 5:30:02 AM","18/09/2018 8:30:02 AM","18/09/2018 5:30:02 AM","25/11/2021 12:10:32 AM","24/11/2021 10:10:32 PM","Archive"
"Microsoft.PowerShell.Core\FileSystem::\\192.168.13.135\cts bk\dbexport_Log.Bak","Microsoft.PowerShell.Core\FileSystem::\\192.168.13.135\cts bk","dbexport_Log.Bak","Microsoft.PowerShell.Core\FileSystem","False","-a----","dbexport_Log",,,"dbexport_Log.Bak","\\192.168.13.135\cts bk\dbexport_Log.Bak",,"True",,".Bak","18/09/2018 8:42:50 AM","18/09/2018 5:42:50 AM","18/09/2018 8:42:50 AM","18/09/2018 5:42:50 AM","25/11/2021 6:00:36 PM","25/11/2021 4:00:36 PM","Archive"
"Microsoft.PowerShell.Core\FileSystem::\\192.168.13.135\cts bk\ExportData.bak","Microsoft.PowerShell.Core\FileSystem::\\192.168.13.135\cts bk","ExportData.bak","Microsoft.PowerShell.Core\FileSystem","False","-a----","ExportData",,,"ExportData.bak","\\192.168.13.135\cts bk\ExportData.bak",,"True",,".bak","18/09/2018 8:30:03 AM","18/09/2018 5:30:03 AM","18/09/2018 8:30:03 AM","18/09/2018 5:30:03 AM","25/11/2021 12:10:54 AM","24/11/2021 10:10:54 PM","Archive"
"Microsoft.PowerShell.Core\FileSystem::\\192.168.13.135\cts bk\ExportData_Log.Bak","Microsoft.PowerShell.Core\FileSystem::\\192.168.13.135\cts bk","ExportData_Log.Bak","Microsoft.PowerShell.Core\FileSystem","False","-a----","ExportData_Log",,,"ExportData_Log.Bak","\\192.168.13.135\cts bk\ExportData_Log.Bak",,"True",,".Bak","18/09/2018 8:42:50 AM","18/09/2018 5:42:50 AM","18/09/2018 8:42:50 AM","18/09/2018 5:42:50 AM","25/11/2021 6:00:36 PM","25/11/2021 4:00:36 PM","Archive"
"Microsoft.PowerShell.Core\FileSystem::\\192.168.13.135\cts bk\HandPunch.bak","Microsoft.PowerShell.Core\FileSystem::\\192.168.13.135\cts bk","HandPunch.bak","Microsoft.PowerShell.Core\FileSystem","False","-a----","HandPunch",,,"HandPunch.bak","\\192.168.13.135\cts bk\HandPunch.bak",,"True",,".bak","18/09/2018 8:30:10 AM","18/09/2018 5:30:10 AM","18/09/2018 8:30:10 AM","18/09/2018 5:30:10 AM","25/11/2021 12:11:03 AM","24/11/2021 10:11:03 PM","Archive"
"Microsoft.PowerShell.Core\FileSystem::\\192.168.13.135\cts bk\HandPunch_Log.Bak","Microsoft.PowerShell.Core\FileSystem::\\192.168.13.135\cts bk","HandPunch_Log.Bak","Microsoft.PowerShell.Core\FileSystem","False","-a----","HandPunch_Log",,,"HandPunch_Log.Bak","\\192.168.13.135\cts bk\HandPunch_Log.Bak",,"True",,".Bak","18/09/2018 8:42:57 AM","18/09/2018 5:42:57 AM","18/09/2018 8:42:57 AM","18/09/2018 5:42:57 AM","25/11/2021 6:00:36 PM","25/11/2021 4:00:36 PM","Archive"
"Microsoft.PowerShell.Core\FileSystem::\\192.168.13.135\cts bk\Hospital.bak","Microsoft.PowerShell.Core\FileSystem::\\192.168.13.135\cts bk","Hospital.bak","Microsoft.PowerShell.Core\FileSystem","False","-a----","Hospital",,,"Hospital.bak","\\192.168.13.135\cts bk\Hospital.bak",,"True",,".bak","12/12/2018 5:14:09 PM","12/12/2018 3:14:09 PM","12/12/2018 5:14:09 PM","12/12/2018 3:14:09 PM","25/11/2021 12:27:35 AM","24/11/2021 10:27:35 PM","Archive"
"Microsoft.PowerShell.Core\FileSystem::\\192.168.13.135\cts bk\Hospital_A.bak","Microsoft.PowerShell.Core\FileSystem::\\192.168.13.135\cts bk","Hospital_A.bak","Microsoft.PowerShell.Core\FileSystem","False","-a----","Hospital_A",,,"Hospital_A.bak","\\192.168.13.135\cts bk\Hospital_A.bak",,"True",,".bak","18/09/2018 8:31:54 AM","18/09/2018 5:31:54 AM","18/09/2018 8:31:54 AM","18/09/2018 5:31:54 AM","25/11/2021 12:27:37 AM","24/11/2021 10:27:37 PM","Archive"
"Microsoft.PowerShell.Core\FileSystem::\\192.168.13.135\cts bk\Hospital_Archive.bak","Microsoft.PowerShell.Core\FileSystem::\\192.168.13.135\cts bk","Hospital_Archive.bak","Microsoft.PowerShell.Core\FileSystem","False","-a----","Hospital_Archive",,,"Hospital_Archive.bak","\\192.168.13.135\cts bk\Hospital_Archive.bak",,"True",,".bak","18/09/2018 8:31:56 AM","18/09/2018 5:31:56 AM","18/09/2018 8:31:56 AM","18/09/2018 5:31:56 AM","25/11/2021 12:28:12 AM","24/11/2021 10:28:12 PM","Archive"
"Microsoft.PowerShell.Core\FileSystem::\\192.168.13.135\cts bk\Hospital_Archive_Log.Bak","Microsoft.PowerShell.Core\FileSystem::\\192.168.13.135\cts bk","Hospital_Archive_Log.Bak","Microsoft.PowerShell.Core\FileSystem","False","-a----","Hospital_Archive_Log",,,"Hospital_Archive_Log.Bak","\\192.168.13.135\cts bk\Hospital_Archive_Log.Bak",,"True",,".Bak","18/09/2018 9:00:28 AM","18/09/2018 6:00:28 AM","18/09/2018 9:00:28 AM","18/09/2018 6:00:28 AM","25/11/2021 6:02:42 PM","25/11/2021 4:02:42 PM","Archive"
"Microsoft.PowerShell.Core\FileSystem::\\192.168.13.135\cts bk\Hospital_A_Log.Bak","Microsoft.PowerShell.Core\FileSystem::\\192.168.13.135\cts bk","Hospital_A_Log.Bak","Microsoft.PowerShell.Core\FileSystem","False","-a----","Hospital_A_Log",,,"Hospital_A_Log.Bak","\\192.168.13.135\cts bk\Hospital_A_Log.Bak",,"True",,".Bak","18/09/2018 9:00:27 AM","18/09/2018 6:00:27 AM","18/09/2018 9:00:27 AM","18/09/2018 6:00:27 AM","25/11/2021 6:02:42 PM","25/11/2021 4:02:42 PM","Archive"
"Microsoft.PowerShell.Core\FileSystem::\\192.168.13.135\cts bk\Hospital_H.bak","Microsoft.PowerShell.Core\FileSystem::\\192.168.13.135\cts bk","Hospital_H.bak","Microsoft.PowerShell.Core\FileSystem","False","-a----","Hospital_H",,,"Hospital_H.bak","\\192.168.13.135\cts bk\Hospital_H.bak",,"True",,".bak","18/09/2018 8:32:10 AM","18/09/2018 5:32:10 AM","18/09/2018 8:32:10 AM","18/09/2018 5:32:10 AM","25/11/2021 12:39:04 AM","24/11/2021 10:39:04 PM","Archive"
"Microsoft.PowerShell.Core\FileSystem::\\192.168.13.135\cts bk\Hospital_H_Log.Bak","Microsoft.PowerShell.Core\FileSystem::\\192.168.13.135\cts bk","Hospital_H_Log.Bak","Microsoft.PowerShell.Core\FileSystem","False","-a----","Hospital_H_Log",,,"Hospital_H_Log.Bak","\\192.168.13.135\cts bk\Hospital_H_Log.Bak",,"True",,".Bak","18/09/2018 9:00:30 AM","18/09/2018 6:00:30 AM","18/09/2018 9:00:30 AM","18/09/2018 6:00:30 AM","25/11/2021 6:02:43 PM","25/11/2021 4:02:43 PM","Archive"
"Microsoft.PowerShell.Core\FileSystem::\\192.168.13.135\cts bk\Hospital_Laboratory.bak","Microsoft.PowerShell.Core\FileSystem::\\192.168.13.135\cts bk","Hospital_Laboratory.bak","Microsoft.PowerShell.Core\FileSystem","False","-a----","Hospital_Laboratory",,,"Hospital_Laboratory.bak","\\192.168.13.135\cts bk\Hospital_Laboratory.bak",,"True",,".bak","18/09/2018 8:34:17 AM","18/09/2018 5:34:17 AM","18/09/2018 8:34:17 AM","18/09/2018 5:34:17 AM","25/11/2021 12:40:01 AM","24/11/2021 10:40:01 PM","Archive"
"Microsoft.PowerShell.Core\FileSystem::\\192.168.13.135\cts bk\Hospital_LaboratoryResults.bak","Microsoft.PowerShell.Core\FileSystem::\\192.168.13.135\cts bk","Hospital_LaboratoryResults.bak","Microsoft.PowerShell.Core\FileSystem","False","-a----","Hospital_LaboratoryResults",,,"Hospital_LaboratoryResults.bak","\\192.168.13.135\cts bk\Hospital_LaboratoryResults.bak",,"True",,".bak","18/09/2018 8:34:26 AM","18/09/2018 5:34:26 AM","18/09/2018 8:34:26 AM","18/09/2018 5:34:26 AM","25/11/2021 1:07:03 AM","24/11/2021 11:07:03 PM","Archive"
"Microsoft.PowerShell.Core\FileSystem::\\192.168.13.135\cts bk\Hospital_LaboratoryResults_Log.Bak","Microsoft.PowerShell.Core\FileSystem::\\192.168.13.135\cts bk","Hospital_LaboratoryResults_Log.Bak","Microsoft.PowerShell.Core\FileSystem","False","-a----","Hospital_LaboratoryResults_Log",,,"Hospital_LaboratoryResults_Log.Bak","\\192.168.13.135\cts bk\Hospital_LaboratoryResults_Log.Bak",,"True",,".Bak","18/09/2018 9:03:40 AM","18/09/2018 6:03:40 AM","18/09/2018 9:03:40 AM","18/09/2018 6:03:40 AM","25/11/2021 6:02:50 PM","25/11/2021 4:02:50 PM","Archive"
"Microsoft.PowerShell.Core\FileSystem::\\192.168.13.135\cts bk\Hospital_Laboratory_Log.Bak","Microsoft.PowerShell.Core\FileSystem::\\192.168.13.135\cts bk","Hospital_Laboratory_Log.Bak","Microsoft.PowerShell.Core\FileSystem","False","-a----","Hospital_Laboratory_Log",,,"Hospital_Laboratory_Log.Bak","\\192.168.13.135\cts bk\Hospital_Laboratory_Log.Bak",,"True",,".Bak","18/09/2018 9:03:23 AM","18/09/2018 6:03:23 AM","18/09/2018 9:03:23 AM","18/09/2018 6:03:23 AM","25/11/2021 6:02:44 PM","25/11/2021 4:02:44 PM","Archive"
"Microsoft.PowerShell.Core\FileSystem::\\192.168.13.135\cts bk\Hospital_Log.Bak","Microsoft.PowerShell.Core\FileSystem::\\192.168.13.135\cts bk","Hospital_Log.Bak","Microsoft.PowerShell.Core\FileSystem","False","-a----","Hospital_Log",,,"Hospital_Log.Bak","\\192.168.13.135\cts bk\Hospital_Log.Bak",,"True",,".Bak","18/09/2018 8:42:58 AM","18/09/2018 5:42:58 AM","18/09/2018 8:42:58 AM","18/09/2018 5:42:58 AM","25/11/2021 6:02:42 PM","25/11/2021 4:02:42 PM","Archive"
"Microsoft.PowerShell.Core\FileSystem::\\192.168.13.135\cts bk\Hospital_Radioresults.bak","Microsoft.PowerShell.Core\FileSystem::\\192.168.13.135\cts bk","Hospital_Radioresults.bak","Microsoft.PowerShell.Core\FileSystem","False","-a----","Hospital_Radioresults",,,"Hospital_Radioresults.bak","\\192.168.13.135\cts bk\Hospital_Radioresults.bak",,"True",,".bak","18/09/2018 8:34:02 AM","18/09/2018 5:34:02 AM","18/09/2018 8:34:02 AM","18/09/2018 5:34:02 AM","25/11/2021 12:39:11 AM","24/11/2021 10:39:11 PM","Archive"
"Microsoft.PowerShell.Core\FileSystem::\\192.168.13.135\cts bk\Hospital_RadioResults_Log.Bak","Microsoft.PowerShell.Core\FileSystem::\\192.168.13.135\cts bk","Hospital_RadioResults_Log.Bak","Microsoft.PowerShell.Core\FileSystem","False","-a----","Hospital_RadioResults_Log",,,"Hospital_RadioResults_Log.Bak","\\192.168.13.135\cts bk\Hospital_RadioResults_Log.Bak",,"True",,".Bak","18/09/2018 9:03:19 AM","18/09/2018 6:03:19 AM","18/09/2018 9:03:19 AM","18/09/2018 6:03:19 AM","25/11/2021 6:02:43 PM","25/11/2021 4:02:43 PM","Archive"
"Microsoft.PowerShell.Core\FileSystem::\\192.168.13.135\cts bk\Hospital_S.bak","Microsoft.PowerShell.Core\FileSystem::\\192.168.13.135\cts bk","Hospital_S.bak","Microsoft.PowerShell.Core\FileSystem","False","-a----","Hospital_S",,,"Hospital_S.bak","\\192.168.13.135\cts bk\Hospital_S.bak",,"True",,".bak","18/09/2018 8:34:06 AM","18/09/2018 5:34:06 AM","18/09/2018 8:34:06 AM","18/09/2018 5:34:06 AM","25/11/2021 12:39:17 AM","24/11/2021 10:39:17 PM","Archive"
"Microsoft.PowerShell.Core\FileSystem::\\192.168.13.135\cts bk\Hospital_S_Log.Bak","Microsoft.PowerShell.Core\FileSystem::\\192.168.13.135\cts bk","Hospital_S_Log.Bak","Microsoft.PowerShell.Core\FileSystem","False","-a----","Hospital_S_Log",,,"Hospital_S_Log.Bak","\\192.168.13.135\cts bk\Hospital_S_Log.Bak",,"True",,".Bak","18/09/2018 9:03:21 AM","18/09/2018 6:03:21 AM","18/09/2018 9:03:21 AM","18/09/2018 6:03:21 AM","25/11/2021 6:02:43 PM","25/11/2021 4:02:43 PM","Archive"
"Microsoft.PowerShell.Core\FileSystem::\\192.168.13.135\cts bk\Hospital_UserLog.bak","Microsoft.PowerShell.Core\FileSystem::\\192.168.13.135\cts bk","Hospital_UserLog.bak","Microsoft.PowerShell.Core\FileSystem","False","-a----","Hospital_UserLog",,,"Hospital_UserLog.bak","\\192.168.13.135\cts bk\Hospital_UserLog.bak",,"True",,".bak","18/09/2018 8:34:08 AM","18/09/2018 5:34:08 AM","18/09/2018 8:34:08 AM","18/09/2018 5:34:08 AM","25/11/2021 12:39:20 AM","24/11/2021 10:39:20 PM","Archive"
"Microsoft.PowerShell.Core\FileSystem::\\192.168.13.135\cts bk\Hospital_UserLog_Log.Bak","Microsoft.PowerShell.Core\FileSystem::\\192.168.13.135\cts bk","Hospital_UserLog_Log.Bak","Microsoft.PowerShell.Core\FileSystem","False","-a----","Hospital_UserLog_Log",,,"Hospital_UserLog_Log.Bak","\\192.168.13.135\cts bk\Hospital_UserLog_Log.Bak",,"True",,".Bak","18/09/2018 9:03:22 AM","18/09/2018 6:03:22 AM","18/09/2018 9:03:22 AM","18/09/2018 6:03:22 AM","25/11/2021 6:02:43 PM","25/11/2021 4:02:43 PM","Archive"
"Microsoft.PowerShell.Core\FileSystem::\\192.168.13.135\cts bk\ORUIN.bak","Microsoft.PowerShell.Core\FileSystem::\\192.168.13.135\cts bk","ORUIN.bak","Microsoft.PowerShell.Core\FileSystem","False","-a----","ORUIN",,,"ORUIN.bak","\\192.168.13.135\cts bk\ORUIN.bak",,"True",,".bak","18/09/2018 8:37:08 AM","18/09/2018 5:37:08 AM","18/09/2018 8:37:08 AM","18/09/2018 5:37:08 AM","25/11/2021 1:07:14 AM","24/11/2021 11:07:14 PM","Archive"
"Microsoft.PowerShell.Core\FileSystem::\\192.168.13.135\cts bk\ORUIN_Log.Bak","Microsoft.PowerShell.Core\FileSystem::\\192.168.13.135\cts bk","ORUIN_Log.Bak","Microsoft.PowerShell.Core\FileSystem","False","-a----","ORUIN_Log",,,"ORUIN_Log.Bak","\\192.168.13.135\cts bk\ORUIN_Log.Bak",,"True",,".Bak","18/09/2018 9:07:01 AM","18/09/2018 6:07:01 AM","18/09/2018 9:07:01 AM","18/09/2018 6:07:01 AM","25/11/2021 6:02:50 PM","25/11/2021 4:02:50 PM","Archive"
"Microsoft.PowerShell.Core\FileSystem::\\192.168.13.135\cts bk\PayrollDB.bak","Microsoft.PowerShell.Core\FileSystem::\\192.168.13.135\cts bk","PayrollDB.bak","Microsoft.PowerShell.Core\FileSystem","False","-a----","PayrollDB",,,"PayrollDB.bak","\\192.168.13.135\cts bk\PayrollDB.bak",,"True",,".bak","03/12/2018 3:24:00 PM","03/12/2018 1:24:00 PM","03/12/2018 3:24:00 PM","03/12/2018 1:24:00 PM","24/11/2021 11:01:21 PM","24/11/2021 9:01:21 PM","Archive"
"Microsoft.PowerShell.Core\FileSystem::\\192.168.13.135\cts bk\Reports.bak","Microsoft.PowerShell.Core\FileSystem::\\192.168.13.135\cts bk","Reports.bak","Microsoft.PowerShell.Core\FileSystem","False","-a----","Reports",,,"Reports.bak","\\192.168.13.135\cts bk\Reports.bak",,"True",,".bak","18/09/2018 8:34:10 AM","18/09/2018 5:34:10 AM","18/09/2018 8:34:10 AM","18/09/2018 5:34:10 AM","25/11/2021 12:39:25 AM","24/11/2021 10:39:25 PM","Archive"
"Microsoft.PowerShell.Core\FileSystem::\\192.168.13.135\cts bk\Reports_Log.Bak","Microsoft.PowerShell.Core\FileSystem::\\192.168.13.135\cts bk","Reports_Log.Bak","Microsoft.PowerShell.Core\FileSystem","False","-a----","Reports_Log",,,"Reports_Log.Bak","\\192.168.13.135\cts bk\Reports_Log.Bak",,"True",,".Bak","18/09/2018 9:03:22 AM","18/09/2018 6:03:22 AM","18/09/2018 9:03:22 AM","18/09/2018 6:03:22 AM","25/11/2021 6:02:43 PM","25/11/2021 4:02:43 PM","Archive"
"Microsoft.PowerShell.Core\FileSystem::\\192.168.13.135\cts bk\SecurDB.bak","Microsoft.PowerShell.Core\FileSystem::\\192.168.13.135\cts bk","SecurDB.bak","Microsoft.PowerShell.Core\FileSystem","False","-a----","SecurDB",,,"SecurDB.bak","\\192.168.13.135\cts bk\SecurDB.bak",,"True",,".bak","18/09/2018 8:34:14 AM","18/09/2018 5:34:14 AM","18/09/2018 8:34:14 AM","18/09/2018 5:34:14 AM","25/11/2021 12:39:27 AM","24/11/2021 10:39:27 PM","Archive"
"Microsoft.PowerShell.Core\FileSystem::\\192.168.13.135\cts bk\SecurDB_Log.Bak","Microsoft.PowerShell.Core\FileSystem::\\192.168.13.135\cts bk","SecurDB_Log.Bak","Microsoft.PowerShell.Core\FileSystem","False","-a----","SecurDB_Log",,,"SecurDB_Log.Bak","\\192.168.13.135\cts bk\SecurDB_Log.Bak",,"True",,".Bak","18/09/2018 9:03:23 AM","18/09/2018 6:03:23 AM","18/09/2018 9:03:23 AM","18/09/2018 6:03:23 AM","25/11/2021 6:02:43 PM","25/11/2021 4:02:43 PM","Archive"
"Microsoft.PowerShell.Core\FileSystem::\\192.168.13.135\cts bk\StandAloneHP.bak","Microsoft.PowerShell.Core\FileSystem::\\192.168.13.135\cts bk","StandAloneHP.bak","Microsoft.PowerShell.Core\FileSystem","False","-a----","StandAloneHP",,,"StandAloneHP.bak","\\192.168.13.135\cts bk\StandAloneHP.bak",,"True",,".bak","18/09/2018 8:34:15 AM","18/09/2018 5:34:15 AM","18/09/2018 8:34:15 AM","18/09/2018 5:34:15 AM","25/11/2021 12:39:31 AM","24/11/2021 10:39:31 PM","Archive"
"Microsoft.PowerShell.Core\FileSystem::\\192.168.13.135\cts bk\StandAloneHP_Log.Bak","Microsoft.PowerShell.Core\FileSystem::\\192.168.13.135\cts bk","StandAloneHP_Log.Bak","Microsoft.PowerShell.Core\FileSystem","False","-a----","StandAloneHP_Log",,,"StandAloneHP_Log.Bak","\\192.168.13.135\cts bk\StandAloneHP_Log.Bak",,"True",,".Bak","18/09/2018 9:03:23 AM","18/09/2018 6:03:23 AM","18/09/2018 9:03:23 AM","18/09/2018 6:03:23 AM","25/11/2021 6:02:43 PM","25/11/2021 4:02:43 PM","Archive"
"Microsoft.PowerShell.Core\FileSystem::\\192.168.13.135\cts bk\bk121219\Accounting.bak","Microsoft.PowerShell.Core\FileSystem::\\192.168.13.135\cts bk\bk121219","Accounting.bak","Microsoft.PowerShell.Core\FileSystem","False","-a----","Accounting",,,"Accounting.bak","\\192.168.13.135\cts bk\bk121219\Accounting.bak",,"True",,".bak","12/12/2019 6:01:55 PM","12/12/2019 4:01:55 PM","12/12/2019 6:01:55 PM","12/12/2019 4:01:55 PM","12/12/2019 1:15:23 PM","12/12/2019 11:15:23 AM","Archive"
"Microsoft.PowerShell.Core\FileSystem::\\192.168.13.135\cts bk\bk121219\Accounting_Log.Bak","Microsoft.PowerShell.Core\FileSystem::\\192.168.13.135\cts bk\bk121219","Accounting_Log.Bak","Microsoft.PowerShell.Core\FileSystem","False","-a----","Accounting_Log",,,"Accounting_Log.Bak","\\192.168.13.135\cts bk\bk121219\Accounting_Log.Bak",,"True",,".Bak","12/12/2019 5:25:00 PM","12/12/2019 3:25:00 PM","12/12/2019 5:25:00 PM","12/12/2019 3:25:00 PM","12/12/2019 2:00:05 PM","12/12/2019 12:00:05 PM","Archive"
"Microsoft.PowerShell.Core\FileSystem::\\192.168.13.135\cts bk\bk121219\Attendance.bak","Microsoft.PowerShell.Core\FileSystem::\\192.168.13.135\cts bk\bk121219","Attendance.bak","Microsoft.PowerShell.Core\FileSystem","False","-a----","Attendance",,,"Attendance.bak","\\192.168.13.135\cts bk\bk121219\Attendance.bak",,"True",,".bak","12/12/2019 6:01:48 PM","12/12/2019 4:01:48 PM","12/12/2019 6:01:48 PM","12/12/2019 4:01:48 PM","12/12/2019 1:15:29 PM","12/12/2019 11:15:29 AM","Archive"
"Microsoft.PowerShell.Core\FileSystem::\\192.168.13.135\cts bk\bk121219\Attendance_Log.Bak","Microsoft.PowerShell.Core\FileSystem::\\192.168.13.135\cts bk\bk121219","Attendance_Log.Bak","Microsoft.PowerShell.Core\FileSystem","False","-a----","Attendance_Log",,,"Attendance_Log.Bak","\\192.168.13.135\cts bk\bk121219\Attendance_Log.Bak",,"True",,".Bak","12/12/2019 5:25:00 PM","12/12/2019 3:25:00 PM","12/12/2019 5:25:00 PM","12/12/2019 3:25:00 PM","12/12/2019 2:00:06 PM","12/12/2019 12:00:06 PM","Archive"
"Microsoft.PowerShell.Core\FileSystem::\\192.168.13.135\cts bk\bk121219\Common_DB.bak","Microsoft.PowerShell.Core\FileSystem::\\192.168.13.135\cts bk\bk121219","Common_DB.bak","Microsoft.PowerShell.Core\FileSystem","False","-a----","Common_DB",,,"Common_DB.bak","\\192.168.13.135\cts bk\bk121219\Common_DB.bak",,"True",,".bak","12/12/2019 6:01:43 PM","12/12/2019 4:01:43 PM","12/12/2019 6:01:43 PM","12/12/2019 4:01:43 PM","12/12/2019 1:15:33 PM","12/12/2019 11:15:33 AM","Archive"
"Microsoft.PowerShell.Core\FileSystem::\\192.168.13.135\cts bk\bk121219\Common_DB_Log.Bak","Microsoft.PowerShell.Core\FileSystem::\\192.168.13.135\cts bk\bk121219","Common_DB_Log.Bak","Microsoft.PowerShell.Core\FileSystem","False","-a----","Common_DB_Log",,,"Common_DB_Log.Bak","\\192.168.13.135\cts bk\bk121219\Common_DB_Log.Bak",,"True",,".Bak","12/12/2019 5:24:59 PM","12/12/2019 3:24:59 PM","12/12/2019 5:24:59 PM","12/12/2019 3:24:59 PM","12/12/2019 2:00:07 PM","12/12/2019 12:00:07 PM","Archive"
"Microsoft.PowerShell.Core\FileSystem::\\192.168.13.135\cts bk\bk121219\ComUserLogDB.bak","Microsoft.PowerShell.Core\FileSystem::\\192.168.13.135\cts bk\bk121219","ComUserLogDB.bak","Microsoft.PowerShell.Core\FileSystem","False","-a----","ComUserLogDB",,,"ComUserLogDB.bak","\\192.168.13.135\cts bk\bk121219\ComUserLogDB.bak",,"True",,".bak","12/12/2019 6:01:43 PM","12/12/2019 4:01:43 PM","12/12/2019 6:01:43 PM","12/12/2019 4:01:43 PM","12/12/2019 1:15:36 PM","12/12/2019 11:15:36 AM","Archive"
"Microsoft.PowerShell.Core\FileSystem::\\192.168.13.135\cts bk\bk121219\ComUserLogDB_Log.Bak","Microsoft.PowerShell.Core\FileSystem::\\192.168.13.135\cts bk\bk121219","ComUserLogDB_Log.Bak","Microsoft.PowerShell.Core\FileSystem","False","-a----","ComUserLogDB_Log",,,"ComUserLogDB_Log.Bak","\\192.168.13.135\cts bk\bk121219\ComUserLogDB_Log.Bak",,"True",,".Bak","12/12/2019 5:25:00 PM","12/12/2019 3:25:00 PM","12/12/2019 5:25:00 PM","12/12/2019 3:25:00 PM","12/12/2019 2:00:07 PM","12/12/2019 12:00:07 PM","Archive"
"Microsoft.PowerShell.Core\FileSystem::\\192.168.13.135\cts bk\bk121219\dbexport.bak","Microsoft.PowerShell.Core\FileSystem::\\192.168.13.135\cts bk\bk121219","dbexport.bak","Microsoft.PowerShell.Core\FileSystem","False","-a----","dbexport",,,"dbexport.bak","\\192.168.13.135\cts bk\bk121219\dbexport.bak",,"True",,".bak","12/12/2019 6:01:43 PM","12/12/2019 4:01:43 PM","12/12/2019 6:01:43 PM","12/12/2019 4:01:43 PM","12/12/2019 1:15:38 PM","12/12/2019 11:15:38 AM","Archive"
"Microsoft.PowerShell.Core\FileSystem::\\192.168.13.135\cts bk\bk121219\dbexport_Log.Bak","Microsoft.PowerShell.Core\FileSystem::\\192.168.13.135\cts bk\bk121219","dbexport_Log.Bak","Microsoft.PowerShell.Core\FileSystem","False","-a----","dbexport_Log",,,"dbexport_Log.Bak","\\192.168.13.135\cts bk\bk121219\dbexport_Log.Bak",,"True",,".Bak","12/12/2019 5:24:59 PM","12/12/2019 3:24:59 PM","12/12/2019 5:24:59 PM","12/12/2019 3:24:59 PM","12/12/2019 2:00:08 PM","12/12/2019 12:00:08 PM","Archive"
"Microsoft.PowerShell.Core\FileSystem::\\192.168.13.135\cts bk\bk121219\ExportData.bak","Microsoft.PowerShell.Core\FileSystem::\\192.168.13.135\cts bk\bk121219","ExportData.bak","Microsoft.PowerShell.Core\FileSystem","False","-a----","ExportData",,,"ExportData.bak","\\192.168.13.135\cts bk\bk121219\ExportData.bak",,"True",,".bak","12/12/2019 6:00:35 PM","12/12/2019 4:00:35 PM","12/12/2019 6:00:35 PM","12/12/2019 4:00:35 PM","12/12/2019 1:15:55 PM","12/12/2019 11:15:55 AM","Archive"
"Microsoft.PowerShell.Core\FileSystem::\\192.168.13.135\cts bk\bk121219\ExportData_Log.Bak","Microsoft.PowerShell.Core\FileSystem::\\192.168.13.135\cts bk\bk121219","ExportData_Log.Bak","Microsoft.PowerShell.Core\FileSystem","False","-a----","ExportData_Log",,,"ExportData_Log.Bak","\\192.168.13.135\cts bk\bk121219\ExportData_Log.Bak",,"True",,".Bak","12/12/2019 5:24:59 PM","12/12/2019 3:24:59 PM","12/12/2019 5:24:59 PM","12/12/2019 3:24:59 PM","12/12/2019 2:00:09 PM","12/12/2019 12:00:09 PM","Archive"
"Microsoft.PowerShell.Core\FileSystem::\\192.168.13.135\cts bk\bk121219\HandPunch.bak","Microsoft.PowerShell.Core\FileSystem::\\192.168.13.135\cts bk\bk121219","HandPunch.bak","Microsoft.PowerShell.Core\FileSystem","False","-a----","HandPunch",,,"HandPunch.bak","\\192.168.13.135\cts bk\bk121219\HandPunch.bak",,"True",,".bak","12/12/2019 6:00:05 PM","12/12/2019 4:00:05 PM","12/12/2019 6:00:05 PM","12/12/2019 4:00:05 PM","12/12/2019 1:16:01 PM","12/12/2019 11:16:01 AM","Archive"
"Microsoft.PowerShell.Core\FileSystem::\\192.168.13.135\cts bk\bk121219\HandPunch_Log.Bak","Microsoft.PowerShell.Core\FileSystem::\\192.168.13.135\cts bk\bk121219","HandPunch_Log.Bak","Microsoft.PowerShell.Core\FileSystem","False","-a----","HandPunch_Log",,,"HandPunch_Log.Bak","\\192.168.13.135\cts bk\bk121219\HandPunch_Log.Bak",,"True",,".Bak","12/12/2019 5:24:59 PM","12/12/2019 3:24:59 PM","12/12/2019 5:24:59 PM","12/12/2019 3:24:59 PM","12/12/2019 2:00:09 PM","12/12/2019 12:00:09 PM","Archive"
"Microsoft.PowerShell.Core\FileSystem::\\192.168.13.135\cts bk\bk121219\Hospital.bak","Microsoft.PowerShell.Core\FileSystem::\\192.168.13.135\cts bk\bk121219","Hospital.bak","Microsoft.PowerShell.Core\FileSystem","False","-a----","Hospital",,,"Hospital.bak","\\192.168.13.135\cts bk\bk121219\Hospital.bak",,"True",,".bak","12/12/2019 5:55:50 PM","12/12/2019 3:55:50 PM","12/12/2019 5:55:50 PM","12/12/2019 3:55:50 PM","12/12/2019 1:22:42 PM","12/12/2019 11:22:42 AM","Archive"
"Microsoft.PowerShell.Core\FileSystem::\\192.168.13.135\cts bk\bk121219\Hospital_A.bak","Microsoft.PowerShell.Core\FileSystem::\\192.168.13.135\cts bk\bk121219","Hospital_A.bak","Microsoft.PowerShell.Core\FileSystem","False","-a----","Hospital_A",,,"Hospital_A.bak","\\192.168.13.135\cts bk\bk121219\Hospital_A.bak",,"True",,".bak","12/12/2019 5:55:50 PM","12/12/2019 3:55:50 PM","12/12/2019 5:55:50 PM","12/12/2019 3:55:50 PM","12/12/2019 1:22:44 PM","12/12/2019 11:22:44 AM","Archive"
"Microsoft.PowerShell.Core\FileSystem::\\192.168.13.135\cts bk\bk121219\Hospital_Archive.bak","Microsoft.PowerShell.Core\FileSystem::\\192.168.13.135\cts bk\bk121219","Hospital_Archive.bak","Microsoft.PowerShell.Core\FileSystem","False","-a----","Hospital_Archive",,,"Hospital_Archive.bak","\\192.168.13.135\cts bk\bk121219\Hospital_Archive.bak",,"True",,".bak","12/12/2019 5:54:19 PM","12/12/2019 3:54:19 PM","12/12/2019 5:54:19 PM","12/12/2019 3:54:19 PM","12/12/2019 1:23:07 PM","12/12/2019 11:23:07 AM","Archive"
"Microsoft.PowerShell.Core\FileSystem::\\192.168.13.135\cts bk\bk121219\Hospital_Archive_Log.Bak","Microsoft.PowerShell.Core\FileSystem::\\192.168.13.135\cts bk\bk121219","Hospital_Archive_Log.Bak","Microsoft.PowerShell.Core\FileSystem","False","-a----","Hospital_Archive_Log",,,"Hospital_Archive_Log.Bak","\\192.168.13.135\cts bk\bk121219\Hospital_Archive_Log.Bak",,"True",,".Bak","12/12/2019 5:22:55 PM","12/12/2019 3:22:55 PM","12/12/2019 5:22:55 PM","12/12/2019 3:22:55 PM","12/12/2019 2:02:19 PM","12/12/2019 12:02:19 PM","Archive"
"Microsoft.PowerShell.Core\FileSystem::\\192.168.13.135\cts bk\bk121219\Hospital_A_Log.Bak","Microsoft.PowerShell.Core\FileSystem::\\192.168.13.135\cts bk\bk121219","Hospital_A_Log.Bak","Microsoft.PowerShell.Core\FileSystem","False","-a----","Hospital_A_Log",,,"Hospital_A_Log.Bak","\\192.168.13.135\cts bk\bk121219\Hospital_A_Log.Bak",,"True",,".Bak","12/12/2019 5:22:55 PM","12/12/2019 3:22:55 PM","12/12/2019 5:22:55 PM","12/12/2019 3:22:55 PM","12/12/2019 2:01:59 PM","12/12/2019 12:01:59 PM","Archive"
"Microsoft.PowerShell.Core\FileSystem::\\192.168.13.135\cts bk\bk121219\Hospital_H.bak","Microsoft.PowerShell.Core\FileSystem::\\192.168.13.135\cts bk\bk121219","Hospital_H.bak","Microsoft.PowerShell.Core\FileSystem","False","-a----","Hospital_H",,,"Hospital_H.bak","\\192.168.13.135\cts bk\bk121219\Hospital_H.bak",,"True",,".bak","12/12/2019 5:47:55 PM","12/12/2019 3:47:55 PM","12/12/2019 5:47:55 PM","12/12/2019 3:47:55 PM","12/12/2019 1:29:27 PM","12/12/2019 11:29:27 AM","Archive"
"Microsoft.PowerShell.Core\FileSystem::\\192.168.13.135\cts bk\bk121219\Hospital_H_Log.Bak","Microsoft.PowerShell.Core\FileSystem::\\192.168.13.135\cts bk\bk121219","Hospital_H_Log.Bak","Microsoft.PowerShell.Core\FileSystem","False","-a----","Hospital_H_Log",,,"Hospital_H_Log.Bak","\\192.168.13.135\cts bk\bk121219\Hospital_H_Log.Bak",,"True",,".Bak","12/12/2019 5:22:55 PM","12/12/2019 3:22:55 PM","12/12/2019 5:22:55 PM","12/12/2019 3:22:55 PM","12/12/2019 2:02:20 PM","12/12/2019 12:02:20 PM","Archive"
"Microsoft.PowerShell.Core\FileSystem::\\192.168.13.135\cts bk\bk121219\Hospital_Laboratory.bak","Microsoft.PowerShell.Core\FileSystem::\\192.168.13.135\cts bk\bk121219","Hospital_Laboratory.bak","Microsoft.PowerShell.Core\FileSystem","False","-a----","Hospital_Laboratory",,,"Hospital_Laboratory.bak","\\192.168.13.135\cts bk\bk121219\Hospital_Laboratory.bak",,"True",,".bak","12/12/2019 5:46:20 PM","12/12/2019 3:46:20 PM","12/12/2019 5:46:20 PM","12/12/2019 3:46:20 PM","12/12/2019 1:30:19 PM","12/12/2019 11:30:19 AM","Archive"
"Microsoft.PowerShell.Core\FileSystem::\\192.168.13.135\cts bk\bk121219\Hospital_LaboratoryResults.bak","Microsoft.PowerShell.Core\FileSystem::\\192.168.13.135\cts bk\bk121219","Hospital_LaboratoryResults.bak","Microsoft.PowerShell.Core\FileSystem","False","-a----","Hospital_LaboratoryResults",,,"Hospital_LaboratoryResults.bak","\\192.168.13.135\cts bk\bk121219\Hospital_LaboratoryResults.bak",,"True",,".bak","12/12/2019 5:25:23 PM","12/12/2019 3:25:23 PM","12/12/2019 5:25:23 PM","12/12/2019 3:25:23 PM","12/12/2019 1:49:28 PM","12/12/2019 11:49:28 AM","Archive"
"Microsoft.PowerShell.Core\FileSystem::\\192.168.13.135\cts bk\bk121219\Hospital_LaboratoryResults_Log.Bak","Microsoft.PowerShell.Core\FileSystem::\\192.168.13.135\cts bk\bk121219","Hospital_LaboratoryResults_Log.Bak","Microsoft.PowerShell.Core\FileSystem","False","-a----","Hospital_LaboratoryResults_Log",,,"Hospital_LaboratoryResults_Log.Bak","\\192.168.13.135\cts bk\bk121219\Hospital_LaboratoryResults_Log.Bak",,"True",,".Bak","12/12/2019 5:22:33 PM","12/12/2019 3:22:33 PM","12/12/2019 5:22:33 PM","12/12/2019 3:22:33 PM","12/12/2019 2:03:11 PM","12/12/2019 12:03:11 PM","Archive"
"Microsoft.PowerShell.Core\FileSystem::\\192.168.13.135\cts bk\bk121219\Hospital_Laboratory_Log.Bak","Microsoft.PowerShell.Core\FileSystem::\\192.168.13.135\cts bk\bk121219","Hospital_Laboratory_Log.Bak","Microsoft.PowerShell.Core\FileSystem","False","-a----","Hospital_Laboratory_Log",,,"Hospital_Laboratory_Log.Bak","\\192.168.13.135\cts bk\bk121219\Hospital_Laboratory_Log.Bak",,"True",,".Bak","12/12/2019 5:22:49 PM","12/12/2019 3:22:49 PM","12/12/2019 5:22:49 PM","12/12/2019 3:22:49 PM","12/12/2019 2:02:46 PM","12/12/2019 12:02:46 PM","Archive"
"Microsoft.PowerShell.Core\FileSystem::\\192.168.13.135\cts bk\bk121219\Hospital_Log.Bak","Microsoft.PowerShell.Core\FileSystem::\\192.168.13.135\cts bk\bk121219","Hospital_Log.Bak","Microsoft.PowerShell.Core\FileSystem","False","-a----","Hospital_Log",,,"Hospital_Log.Bak","\\192.168.13.135\cts bk\bk121219\Hospital_Log.Bak",,"True",,".Bak","12/12/2019 5:22:56 PM","12/12/2019 3:22:56 PM","12/12/2019 5:22:56 PM","12/12/2019 3:22:56 PM","12/12/2019 2:01:54 PM","12/12/2019 12:01:54 PM","Archive"
"Microsoft.PowerShell.Core\FileSystem::\\192.168.13.135\cts bk\bk121219\Hospital_Radioresults.bak","Microsoft.PowerShell.Core\FileSystem::\\192.168.13.135\cts bk\bk121219","Hospital_Radioresults.bak","Microsoft.PowerShell.Core\FileSystem","False","-a----","Hospital_Radioresults",,,"Hospital_Radioresults.bak","\\192.168.13.135\cts bk\bk121219\Hospital_Radioresults.bak",,"True",,".bak","12/12/2019 5:47:37 PM","12/12/2019 3:47:37 PM","12/12/2019 5:47:37 PM","12/12/2019 3:47:37 PM","12/12/2019 1:29:35 PM","12/12/2019 11:29:35 AM","Archive"
"Microsoft.PowerShell.Core\FileSystem::\\192.168.13.135\cts bk\bk121219\Hospital_RadioResults_Log.Bak","Microsoft.PowerShell.Core\FileSystem::\\192.168.13.135\cts bk\bk121219","Hospital_RadioResults_Log.Bak","Microsoft.PowerShell.Core\FileSystem","False","-a----","Hospital_RadioResults_Log",,,"Hospital_RadioResults_Log.Bak","\\192.168.13.135\cts bk\bk121219\Hospital_RadioResults_Log.Bak",,"True",,".Bak","12/12/2019 5:22:54 PM","12/12/2019 3:22:54 PM","12/12/2019 5:22:54 PM","12/12/2019 3:22:54 PM","12/12/2019 2:02:28 PM","12/12/2019 12:02:28 PM","Archive"
"Microsoft.PowerShell.Core\FileSystem::\\192.168.13.135\cts bk\bk121219\Hospital_S.bak","Microsoft.PowerShell.Core\FileSystem::\\192.168.13.135\cts bk\bk121219","Hospital_S.bak","Microsoft.PowerShell.Core\FileSystem","False","-a----","Hospital_S",,,"Hospital_S.bak","\\192.168.13.135\cts bk\bk121219\Hospital_S.bak",,"True",,".bak","12/12/2019 5:47:31 PM","12/12/2019 3:47:31 PM","12/12/2019 5:47:31 PM","12/12/2019 3:47:31 PM","12/12/2019 1:29:44 PM","12/12/2019 11:29:44 AM","Archive"
"Microsoft.PowerShell.Core\FileSystem::\\192.168.13.135\cts bk\bk121219\Hospital_S_Log.Bak","Microsoft.PowerShell.Core\FileSystem::\\192.168.13.135\cts bk\bk121219","Hospital_S_Log.Bak","Microsoft.PowerShell.Core\FileSystem","False","-a----","Hospital_S_Log",,,"Hospital_S_Log.Bak","\\192.168.13.135\cts bk\bk121219\Hospital_S_Log.Bak",,"True",,".Bak","12/12/2019 5:22:54 PM","12/12/2019 3:22:54 PM","12/12/2019 5:22:54 PM","12/12/2019 3:22:54 PM","12/12/2019 2:02:31 PM","12/12/2019 12:02:31 PM","Archive"
"Microsoft.PowerShell.Core\FileSystem::\\192.168.13.135\cts bk\bk121219\Hospital_UserLog.bak","Microsoft.PowerShell.Core\FileSystem::\\192.168.13.135\cts bk\bk121219","Hospital_UserLog.bak","Microsoft.PowerShell.Core\FileSystem","False","-a----","Hospital_UserLog",,,"Hospital_UserLog.bak","\\192.168.13.135\cts bk\bk121219\Hospital_UserLog.bak",,"True",,".bak","12/12/2019 5:47:28 PM","12/12/2019 3:47:28 PM","12/12/2019 5:47:28 PM","12/12/2019 3:47:28 PM","12/12/2019 1:29:48 PM","12/12/2019 11:29:48 AM","Archive"
"Microsoft.PowerShell.Core\FileSystem::\\192.168.13.135\cts bk\bk121219\Hospital_UserLog_Log.Bak","Microsoft.PowerShell.Core\FileSystem::\\192.168.13.135\cts bk\bk121219","Hospital_UserLog_Log.Bak","Microsoft.PowerShell.Core\FileSystem","False","-a----","Hospital_UserLog_Log",,,"Hospital_UserLog_Log.Bak","\\192.168.13.135\cts bk\bk121219\Hospital_UserLog_Log.Bak",,"True",,".Bak","12/12/2019 5:22:54 PM","12/12/2019 3:22:54 PM","12/12/2019 5:22:54 PM","12/12/2019 3:22:54 PM","12/12/2019 2:02:35 PM","12/12/2019 12:02:35 PM","Archive"
"Microsoft.PowerShell.Core\FileSystem::\\192.168.13.135\cts bk\bk121219\ORUIN.bak","Microsoft.PowerShell.Core\FileSystem::\\192.168.13.135\cts bk\bk121219","ORUIN.bak","Microsoft.PowerShell.Core\FileSystem","False","-a----","ORUIN",,,"ORUIN.bak","\\192.168.13.135\cts bk\bk121219\ORUIN.bak",,"True",,".bak","12/12/2019 5:25:05 PM","12/12/2019 3:25:05 PM","12/12/2019 5:25:05 PM","12/12/2019 3:25:05 PM","12/12/2019 1:49:34 PM","12/12/2019 11:49:34 AM","Archive"
"Microsoft.PowerShell.Core\FileSystem::\\192.168.13.135\cts bk\bk121219\ORUIN_Log.Bak","Microsoft.PowerShell.Core\FileSystem::\\192.168.13.135\cts bk\bk121219","ORUIN_Log.Bak","Microsoft.PowerShell.Core\FileSystem","False","-a----","ORUIN_Log",,,"ORUIN_Log.Bak","\\192.168.13.135\cts bk\bk121219\ORUIN_Log.Bak",,"True",,".Bak","12/12/2019 5:22:49 PM","12/12/2019 3:22:49 PM","12/12/2019 5:22:49 PM","12/12/2019 3:22:49 PM","12/12/2019 2:03:11 PM","12/12/2019 12:03:11 PM","Archive"
"Microsoft.PowerShell.Core\FileSystem::\\192.168.13.135\cts bk\bk121219\PayrollDB.bak","Microsoft.PowerShell.Core\FileSystem::\\192.168.13.135\cts bk\bk121219","PayrollDB.bak","Microsoft.PowerShell.Core\FileSystem","False","-a----","PayrollDB",,,"PayrollDB.bak","\\192.168.13.135\cts bk\bk121219\PayrollDB.bak",,"True",,".bak","12/12/2019 6:06:09 PM","12/12/2019 4:06:09 PM","12/12/2019 6:06:09 PM","12/12/2019 4:06:09 PM","11/12/2019 11:03:58 PM","11/12/2019 9:03:58 PM","Archive"
"Microsoft.PowerShell.Core\FileSystem::\\192.168.13.135\cts bk\bk121219\Reports.bak","Microsoft.PowerShell.Core\FileSystem::\\192.168.13.135\cts bk\bk121219","Reports.bak","Microsoft.PowerShell.Core\FileSystem","False","-a----","Reports",,,"Reports.bak","\\192.168.13.135\cts bk\bk121219\Reports.bak",,"True",,".bak","12/12/2019 5:47:14 PM","12/12/2019 3:47:14 PM","12/12/2019 5:47:14 PM","12/12/2019 3:47:14 PM","12/12/2019 1:29:53 PM","12/12/2019 11:29:53 AM","Archive"
"Microsoft.PowerShell.Core\FileSystem::\\192.168.13.135\cts bk\bk121219\Reports_Log.Bak","Microsoft.PowerShell.Core\FileSystem::\\192.168.13.135\cts bk\bk121219","Reports_Log.Bak","Microsoft.PowerShell.Core\FileSystem","False","-a----","Reports_Log",,,"Reports_Log.Bak","\\192.168.13.135\cts bk\bk121219\Reports_Log.Bak",,"True",,".Bak","12/12/2019 5:22:54 PM","12/12/2019 3:22:54 PM","12/12/2019 5:22:54 PM","12/12/2019 3:22:54 PM","12/12/2019 2:02:38 PM","12/12/2019 12:02:38 PM","Archive"
"Microsoft.PowerShell.Core\FileSystem::\\192.168.13.135\cts bk\bk121219\SecurDB.bak","Microsoft.PowerShell.Core\FileSystem::\\192.168.13.135\cts bk\bk121219","SecurDB.bak","Microsoft.PowerShell.Core\FileSystem","False","-a----","SecurDB",,,"SecurDB.bak","\\192.168.13.135\cts bk\bk121219\SecurDB.bak",,"True",,".bak","12/12/2019 5:47:14 PM","12/12/2019 3:47:14 PM","12/12/2019 5:47:14 PM","12/12/2019 3:47:14 PM","12/12/2019 1:29:56 PM","12/12/2019 11:29:56 AM","Archive"
"Microsoft.PowerShell.Core\FileSystem::\\192.168.13.135\cts bk\bk121219\SecurDB_Log.Bak","Microsoft.PowerShell.Core\FileSystem::\\192.168.13.135\cts bk\bk121219","SecurDB_Log.Bak","Microsoft.PowerShell.Core\FileSystem","False","-a----","SecurDB_Log",,,"SecurDB_Log.Bak","\\192.168.13.135\cts bk\bk121219\SecurDB_Log.Bak",,"True",,".Bak","12/12/2019 5:22:54 PM","12/12/2019 3:22:54 PM","12/12/2019 5:22:54 PM","12/12/2019 3:22:54 PM","12/12/2019 2:02:39 PM","12/12/2019 12:02:39 PM","Archive"
"Microsoft.PowerShell.Core\FileSystem::\\192.168.13.135\cts bk\bk121219\StandAloneHP.bak","Microsoft.PowerShell.Core\FileSystem::\\192.168.13.135\cts bk\bk121219","StandAloneHP.bak","Microsoft.PowerShell.Core\FileSystem","False","-a----","StandAloneHP",,,"StandAloneHP.bak","\\192.168.13.135\cts bk\bk121219\StandAloneHP.bak",,"True",,".bak","12/12/2019 5:47:09 PM","12/12/2019 3:47:09 PM","12/12/2019 5:47:09 PM","12/12/2019 3:47:09 PM","12/12/2019 1:29:59 PM","12/12/2019 11:29:59 AM","Archive"
"Microsoft.PowerShell.Core\FileSystem::\\192.168.13.135\cts bk\bk121219\StandAloneHP_Log.Bak","Microsoft.PowerShell.Core\FileSystem::\\192.168.13.135\cts bk\bk121219","StandAloneHP_Log.Bak","Microsoft.PowerShell.Core\FileSystem","False","-a----","StandAloneHP_Log",,,"StandAloneHP_Log.Bak","\\192.168.13.135\cts bk\bk121219\StandAloneHP_Log.Bak",,"True",,".Bak","12/12/2019 5:22:54 PM","12/12/2019 3:22:54 PM","12/12/2019 5:22:54 PM","12/12/2019 3:22:54 PM","12/12/2019 2:02:44 PM","12/12/2019 12:02:44 PM","Archive"
