#TYPE System.Data.DataRow
"database Name","Database Id","File Logical Name","File type","Physical Location","Database Recovery Model","Database State","File Size in MB"
"master","1","master","Data File","C:\Program Files\Microsoft SQL Server\MSSQL13.MSSQLSERVER\MSSQL\DATA\master.mdf","SIMPLE","ONLINE","8"
"master","1","mastlog","Log File","C:\Program Files\Microsoft SQL Server\MSSQL13.MSSQLSERVER\MSSQL\DATA\mastlog.ldf","SIMPLE","ONLINE","17"
"tempdb","2","tempdev","Data File","C:\Program Files\Microsoft SQL Server\MSSQL13.MSSQLSERVER\MSSQL\DATA\tempdb.mdf","SIMPLE","ONLINE","195"
"tempdb","2","templog","Log File","C:\Program Files\Microsoft SQL Server\MSSQL13.MSSQLSERVER\MSSQL\DATA\templog.ldf","SIMPLE","ONLINE","216"
"tempdb","2","temp2","Data File","C:\Program Files\Microsoft SQL Server\MSSQL13.MSSQLSERVER\MSSQL\DATA\tempdb_mssql_2.ndf","SIMPLE","ONLINE","197"
"tempdb","2","temp3","Data File","C:\Program Files\Microsoft SQL Server\MSSQL13.MSSQLSERVER\MSSQL\DATA\tempdb_mssql_3.ndf","SIMPLE","ONLINE","199"
"tempdb","2","temp4","Data File","C:\Program Files\Microsoft SQL Server\MSSQL13.MSSQLSERVER\MSSQL\DATA\tempdb_mssql_4.ndf","SIMPLE","ONLINE","198"
"tempdb","2","temp5","Data File","C:\Program Files\Microsoft SQL Server\MSSQL13.MSSQLSERVER\MSSQL\DATA\tempdb_mssql_5.ndf","SIMPLE","ONLINE","199"
"tempdb","2","temp6","Data File","C:\Program Files\Microsoft SQL Server\MSSQL13.MSSQLSERVER\MSSQL\DATA\tempdb_mssql_6.ndf","SIMPLE","ONLINE","199"
"tempdb","2","temp7","Data File","C:\Program Files\Microsoft SQL Server\MSSQL13.MSSQLSERVER\MSSQL\DATA\tempdb_mssql_7.ndf","SIMPLE","ONLINE","198"
"tempdb","2","temp8","Data File","C:\Program Files\Microsoft SQL Server\MSSQL13.MSSQLSERVER\MSSQL\DATA\tempdb_mssql_8.ndf","SIMPLE","ONLINE","199"
"model","3","modeldev","Data File","C:\Program Files\Microsoft SQL Server\MSSQL13.MSSQLSERVER\MSSQL\DATA\model.mdf","FULL","ONLINE","8"
"model","3","modellog","Log File","C:\Program Files\Microsoft SQL Server\MSSQL13.MSSQLSERVER\MSSQL\DATA\modellog.ldf","FULL","ONLINE","72"
"msdb","4","MSDBData","Data File","C:\Program Files\Microsoft SQL Server\MSSQL13.MSSQLSERVER\MSSQL\DATA\MSDBData.mdf","SIMPLE","ONLINE","465"
"msdb","4","MSDBLog","Log File","C:\Program Files\Microsoft SQL Server\MSSQL13.MSSQLSERVER\MSSQL\DATA\MSDBLog.ldf","SIMPLE","ONLINE","61"
"Accounting","5","hospdb1_Data","Data File","D:\Program Files\Microsoft SQL Server\MSSQL.1\MSSQL\Data\Accounting.mdf","FULL","ONLINE","30051"
"Accounting","5","hospdb1_Log","Log File","E:\Program Files\Microsoft SQL Server\MSSQL.1\MSSQL\Log\Accounting_1.ldf","FULL","ONLINE","11054"
"Attendance","6","hospdb1_Data","Data File","D:\Program Files\Microsoft SQL Server\MSSQL.1\MSSQL\Data\Attendance.mdf","FULL","ONLINE","176"
"Attendance","6","hospdb1_Log","Log File","E:\Program Files\Microsoft SQL Server\MSSQL.1\MSSQL\Log\Attendance_1.ldf","FULL","ONLINE","1"
"Common_DB","7","Common_DB","Data File","D:\Program Files\Microsoft SQL Server\MSSQL.1\MSSQL\Data\Common_DB_Data.mdf","FULL","ONLINE","176"
"Common_DB","7","Common_DB_log","Log File","E:\Program Files\Microsoft SQL Server\MSSQL.1\MSSQL\Log\Common_DB_Log.ldf","FULL","ONLINE","8"
"ComUserLogDB","8","ComUserLogDB","Data File","D:\Program Files\Microsoft SQL Server\MSSQL.1\MSSQL\Data\ComUserLogDB.mdf","FULL","ONLINE","8"
"ComUserLogDB","8","ComUserLogDB_log","Log File","e:\Program Files\Microsoft SQL Server\MSSQL.1\MSSQL\Log\ComUserLogDB_log.ldf","FULL","ONLINE","1"
"dbexport","9","dbexport","Data File","D:\Program Files\Microsoft SQL Server\MSSQL.1\MSSQL\Data\dbexport.mdf","FULL","ONLINE","3"
"dbexport","9","dbexport_log","Log File","E:\Program Files\Microsoft SQL Server\MSSQL.1\MSSQL\Log\dbexport_log.LDF","FULL","ONLINE","0"
"ExportData","10","ExportData_Data","Data File","D:\Program Files\Microsoft SQL Server\MSSQL.1\MSSQL\Data\ExportData.mdf","FULL","ONLINE","1444"
"ExportData","10","ExportData_Log","Log File","E:\Program Files\Microsoft SQL Server\MSSQL.1\MSSQL\Log\ExportData_1.ldf","FULL","ONLINE","1191"
"HandPunch","11","HandPunch","Data File","D:\Program Files\Microsoft SQL Server\MSSQL.1\MSSQL\Data\HandPunch.mdf","FULL","ONLINE","469"
"HandPunch","11","HandPunch_log","Log File","E:\Program Files\Microsoft SQL Server\MSSQL.1\MSSQL\Log\HandPunch_1.ldf","FULL","ONLINE","3"
"Hospital","12","Hospital","Data File","D:\Program Files\Microsoft SQL Server\MSSQL.1\MSSQL\Data\Hospital.mdf","FULL","ONLINE","35951"
"Hospital","12","Hospital_log","Log File","E:\Program Files\Microsoft SQL Server\MSSQL.1\MSSQL\Log\Hospital_1.ldf","FULL","ONLINE","6328"
"Hospital_A","13","Hospital_A_Data","Data File","D:\Program Files\Microsoft SQL Server\MSSQL.1\MSSQL\Data\Hospital_A.MDF","FULL","ONLINE","5"
"Hospital_A","13","Hospital_A_Log","Log File","E:\Program Files\Microsoft SQL Server\MSSQL.1\MSSQL\Log\Hospital_A_1.LDF","FULL","ONLINE","2"
"Hospital_archive","14","Hospital_Archive","Data File","D:\Program Files\Microsoft SQL Server\MSSQL.1\MSSQL\Data\Hospital_Archive.mdf","FULL","ONLINE","2928"
"Hospital_archive","14","Hospital_Archive_log","Log File","E:\Program Files\Microsoft SQL Server\MSSQL.1\MSSQL\Log\Hospital_archive_1.ldf","FULL","ONLINE","38"
"Hospital_BloodBank_old","15","Hospital_BloodBank","Data File","D:\Program Files\Microsoft SQL Server\MSSQL.1\MSSQL\Data\Hospital_BloodBank_old.mdf","FULL","ONLINE","4"
"Hospital_BloodBank_old","15","Hospital_BloodBank_log","Log File","E:\Program Files\Microsoft SQL Server\MSSQL.1\MSSQL\Log\Hospital_BloodBank_old_1.ldf","FULL","ONLINE","1"
"Hospital_H","16","Hospital_H","Data File","D:\Program Files\Microsoft SQL Server\MSSQL.1\MSSQL\Data\Hospital_H.mdf","FULL","ONLINE","35723"
"Hospital_H","16","Hospital_H_log","Log File","E:\Program Files\Microsoft SQL Server\MSSQL.1\MSSQL\Log\Hospital_H_1.ldf","FULL","ONLINE","78"
"Hospital_Laboratory","17","LABORATOIRE_Data","Data File","D:\Program Files\Microsoft SQL Server\MSSQL.1\MSSQL\Data\Hospital_Laboratory.mdf","FULL","ONLINE","1604"
"Hospital_Laboratory","17","LABORATOIRE_Log","Log File","E:\Program Files\Microsoft SQL Server\MSSQL.1\MSSQL\Log\Hospital_Laboratory_1.ldf","FULL","ONLINE","194"
"Hospital_Radioresults","18","Hospital_RadioResults","Data File","D:\Program Files\Microsoft SQL Server\MSSQL.1\MSSQL\Data\Hospital_Radioresults.mdf","FULL","ONLINE","642"
"Hospital_Radioresults","18","Hospital_RadioResults_log","Log File","E:\Program Files\Microsoft SQL Server\MSSQL.1\MSSQL\Log\Hospital_Radioresults_1.ldf","FULL","ONLINE","146"
"Hospital_S","19","Hospital_S_Data","Data File","D:\Program Files\Microsoft SQL Server\MSSQL.1\MSSQL\Data\Hospital_S.mdf","FULL","ONLINE","461"
"Hospital_S","19","Hospital_S_Log","Log File","E:\Program Files\Microsoft SQL Server\MSSQL.1\MSSQL\Log\Hospital_S_1.ldf","FULL","ONLINE","672"
"Hospital_UserLog","20","hospital_UserLog","Data File","D:\Program Files\Microsoft SQL Server\MSSQL.1\MSSQL\Data\hospital_UserLog.mdf","FULL","ONLINE","8"
"Hospital_UserLog","20","hospital_UserLog_log","Log File","E:\Program Files\Microsoft SQL Server\MSSQL.1\MSSQL\Log\hospital_UserLog_log.ldf","FULL","ONLINE","68"
"ORUIN","21","ORUIN","Data File","D:\Program Files\Microsoft SQL Server\MSSQL.1\MSSQL\Data\ORUIN.mdf","FULL","ONLINE","839"
"ORUIN","21","ORUIN_log","Log File","E:\Program Files\Microsoft SQL Server\MSSQL.1\MSSQL\Log\ORUIN_1.ldf","FULL","ONLINE","11"
"Reports","22","reports","Data File","D:\Program Files\Microsoft SQL Server\MSSQL.1\MSSQL\Data\Reports.mdf","FULL","ONLINE","338"
"Reports","22","reports_log","Log File","E:\Program Files\Microsoft SQL Server\MSSQL.1\MSSQL\Log\Reports_1.ldf","FULL","ONLINE","1"
"SecurDB","23","Securdb","Data File","D:\Program Files\Microsoft SQL Server\MSSQL.1\MSSQL\Data\SecurDB.mdf","FULL","ONLINE","2"
"SecurDB","23","Securdb_log","Log File","E:\Program Files\Microsoft SQL Server\MSSQL.1\MSSQL\Log\SecurDB_1.LDF","FULL","ONLINE","0"
"StandAloneHP","24","HandPunch","Data File","D:\Program Files\Microsoft SQL Server\MSSQL.1\MSSQL\Data\StandAloneHP.mdf","FULL","ONLINE","161"
"StandAloneHP","24","HandPunch_log","Log File","E:\Program Files\Microsoft SQL Server\MSSQL.1\MSSQL\Log\StandAloneHP_1.ldf","FULL","ONLINE","5"
"Hospital_laboratoryResults","25","Hospital_LaboratoryResults","Data File","D:\Program Files\Microsoft SQL Server\MSSQL.1\MSSQL\Data\Hospital_LaboratoryResults.mdf","FULL","ONLINE","81884"
"Hospital_laboratoryResults","25","Hospital_LaboratoryResults_log","Log File","E:\Program Files\Microsoft SQL Server\MSSQL.1\MSSQL\Log\Hospital_LaboratoryResults_1.ldf","FULL","ONLINE","2110"
"distribution","26","distribution","Data File","C:\Program Files\Microsoft SQL Server\MSSQL13.MSSQLSERVER\MSSQL\Data\distribution.MDF","SIMPLE","ONLINE","13901"
"distribution","26","distribution_log","Log File","C:\Program Files\Microsoft SQL Server\MSSQL13.MSSQLSERVER\MSSQL\Data\distribution.LDF","SIMPLE","ONLINE","13321"
"ProfilerLog","27","ProfilerLog","Data File","D:\Program Files\Microsoft SQL Server\MSSQL.1\MSSQL\Data\ProfilerLog.mdf","SIMPLE","ONLINE","10248"
"ProfilerLog","27","ProfilerLog_log","Log File","E:\Program Files\Microsoft SQL Server\MSSQL.1\MSSQL\Log\ProfilerLog_1.ldf","SIMPLE","ONLINE","200"
"SMS_DB","28","SMS_DB","Data File","D:\Program Files\Microsoft SQL Server\MSSQL.1\MSSQL\Data\SMS_DB.mdf","FULL","ONLINE","52"
"SMS_DB","28","SMS_DB_log","Log File","E:\Program Files\Microsoft SQL Server\MSSQL.1\MSSQL\Log\SMS_DB_1.ldf","FULL","ONLINE","1"
"Hospital_TEST","29","Hospital","Data File","D:\Program Files\Microsoft SQL Server\MSSQL.1\MSSQL\Data\Hospital_TEST.mdf","SIMPLE","ONLINE","11794"
"Hospital_TEST","29","Hospital_log","Log File","E:\Program Files\Microsoft SQL Server\MSSQL.1\MSSQL\Log\Hospital_TEST_1.ldf","SIMPLE","ONLINE","50"
"CTServLog","30","CTServLog","Data File","D:\Program Files\Microsoft SQL Server\MSSQL.1\MSSQL\Data\CTServLog.mdf","FULL","ONLINE","520"
"CTServLog","30","CTServLog_log","Log File","E:\Program Files\Microsoft SQL Server\MSSQL.1\MSSQL\Log\CTServLog_log.ldf","FULL","ONLINE","72"
"test","32","test","Data File","C:\Program Files\Microsoft SQL Server\MSSQL13.MSSQLSERVER\MSSQL\DATA\test.mdf","SIMPLE","ONLINE","8"
"test","32","test_log","Log File","C:\Program Files\Microsoft SQL Server\MSSQL13.MSSQLSERVER\MSSQL\DATA\test_log.ldf","SIMPLE","ONLINE","72"
